%YAML 1.1
%TAG !u! tag:unity3d.com,2011:
--- !u!114 &11400000
MonoBehaviour:
  m_ObjectHideFlags: 0
  m_CorrespondingSourceObject: {fileID: 0}
  m_PrefabInstance: {fileID: 0}
  m_PrefabAsset: {fileID: 0}
  m_GameObject: {fileID: 0}
  m_Enabled: 1
  m_EditorHideFlags: 0
  m_Script: {fileID: 11500000, guid: 8e6292b2c06870d4495f009f912b9600, type: 3}
  m_Name: MainScene
  m_EditorClassIdentifier: 
  settings:
  - {fileID: 114289319752005798}
  - {fileID: 114229699555157934}
  - {fileID: 114958725139066630}
  - {fileID: 114474955449367972}
  - {fileID: 114711910838950756}
  - {fileID: 114785499893001766}
  - {fileID: 114076365384933178}
  - {fileID: 114151529962895214}
  - {fileID: 114865871779564460}
  - {fileID: 114897432393837734}
--- !u!114 &114006459759176956
MonoBehaviour:
  m_ObjectHideFlags: 3
  m_CorrespondingSourceObject: {fileID: 0}
  m_PrefabInstance: {fileID: 0}
  m_PrefabAsset: {fileID: 0}
  m_GameObject: {fileID: 0}
  m_Enabled: 1
  m_EditorHideFlags: 0
  m_Script: {fileID: 11500000, guid: e197de90caddbef4a986a052e67e88f5, type: 3}
  m_Name: PostDistortion
  m_EditorClassIdentifier: 
  active: 1
  enabled:
    overrideState: 1
    value: 1
  amount:
    overrideState: 1
    value: 20
  centerX:
    overrideState: 1
    value: 0
  centerY:
    overrideState: 1
    value: 0
  amountX:
    overrideState: 1
    value: 1
  amountY:
    overrideState: 1
    value: 1
  scale:
    overrideState: 1
    value: 1.04
--- !u!114 &114070302472248178
MonoBehaviour:
  m_ObjectHideFlags: 3
  m_CorrespondingSourceObject: {fileID: 0}
  m_PrefabInstance: {fileID: 0}
  m_PrefabAsset: {fileID: 0}
  m_GameObject: {fileID: 0}
  m_Enabled: 1
  m_EditorHideFlags: 0
  m_Script: {fileID: 11500000, guid: d7794548b040f104c8d0e62802431744, type: 3}
  m_Name: FadeToBlack
  m_EditorClassIdentifier: 
  active: 1
  enabled:
    overrideState: 1
    value: 1
--- !u!114 &114076365384933178
MonoBehaviour:
  m_ObjectHideFlags: 3
  m_CorrespondingSourceObject: {fileID: 0}
  m_PrefabInstance: {fileID: 0}
  m_PrefabAsset: {fileID: 0}
  m_GameObject: {fileID: 0}
  m_Enabled: 1
  m_EditorHideFlags: 0
  m_Script: {fileID: 11500000, guid: 40b924e2dad56384a8df2a1e111bb675, type: 3}
  m_Name: Vignette
  m_EditorClassIdentifier: 
  active: 1
  enabled:
    overrideState: 1
    value: 1
  mode:
    overrideState: 1
    value: 0
  color:
    overrideState: 1
    value: {r: 0, g: 0, b: 0, a: 1}
  center:
    overrideState: 1
    value: {x: 0.5, y: 0.5}
  intensity:
    overrideState: 1
    value: 0.429
  smoothness:
    overrideState: 1
    value: 0.2
  roundness:
    overrideState: 1
    value: 1
  rounded:
    overrideState: 1
    value: 0
  mask:
    overrideState: 1
    value: {fileID: 0}
    defaultState: 1
  opacity:
    overrideState: 1
    value: 1
--- !u!114 &114151529962895214
MonoBehaviour:
  m_ObjectHideFlags: 3
  m_CorrespondingSourceObject: {fileID: 0}
  m_PrefabInstance: {fileID: 0}
  m_PrefabAsset: {fileID: 0}
  m_GameObject: {fileID: 0}
  m_Enabled: 1
  m_EditorHideFlags: 0
  m_Script: {fileID: 11500000, guid: d65e486e4de6e5448a8fbb43dc8756a0, type: 3}
  m_Name: Grain
  m_EditorClassIdentifier: 
  active: 1
  enabled:
    overrideState: 1
    value: 1
  colored:
    overrideState: 1
    value: 0
  intensity:
    overrideState: 1
    value: 0.2
  size:
    overrideState: 1
    value: 1
  lumContrib:
    overrideState: 1
    value: 0.8
--- !u!114 &114229699555157934
MonoBehaviour:
  m_ObjectHideFlags: 3
  m_CorrespondingSourceObject: {fileID: 0}
  m_PrefabInstance: {fileID: 0}
  m_PrefabAsset: {fileID: 0}
  m_GameObject: {fileID: 0}
  m_Enabled: 1
  m_EditorHideFlags: 0
  m_Script: {fileID: 11500000, guid: 556797029e73b2347956b6579e77e05b, type: 3}
  m_Name: DepthOfField
  m_EditorClassIdentifier: 
  active: 1
  enabled:
    overrideState: 1
    value: 1
  focusDistance:
    overrideState: 1
    value: 1.5
  aperture:
    overrideState: 1
    value: 4.7
  focalLength:
    overrideState: 1
    value: 56
  kernelSize:
    overrideState: 1
    value: 1
--- !u!114 &114289319752005798
MonoBehaviour:
  m_ObjectHideFlags: 3
  m_CorrespondingSourceObject: {fileID: 0}
  m_PrefabInstance: {fileID: 0}
  m_PrefabAsset: {fileID: 0}
  m_GameObject: {fileID: 0}
  m_Enabled: 1
  m_EditorHideFlags: 0
  m_Script: {fileID: 11500000, guid: 48a79b01ea5641d4aa6daa2e23605641, type: 3}
  m_Name: Bloom
  m_EditorClassIdentifier: 
  active: 1
  enabled:
    overrideState: 1
    value: 1
  intensity:
    overrideState: 1
    value: 1
  threshold:
    overrideState: 1
    value: 2.21
  softKnee:
    overrideState: 1
    value: 0.761
  clamp:
    overrideState: 1
    value: 65472
  diffusion:
    overrideState: 1
    value: 7.81
  anamorphicRatio:
    overrideState: 1
    value: 0
  color:
    overrideState: 1
    value: {r: 1, g: 0.92970794, b: 0.9098039, a: 1}
  fastMode:
    overrideState: 1
    value: 0
  dirtTexture:
    overrideState: 1
    value: {fileID: 2800000, guid: a2960ffde020f27409e070d92fb2e00b, type: 3}
    defaultState: 1
  dirtIntensity:
    overrideState: 1
    value: 1
--- !u!114 &114320090740159678
MonoBehaviour:
  m_ObjectHideFlags: 3
  m_CorrespondingSourceObject: {fileID: 0}
  m_PrefabInstance: {fileID: 0}
  m_PrefabAsset: {fileID: 0}
  m_GameObject: {fileID: 0}
  m_Enabled: 1
  m_EditorHideFlags: 0
  m_Script: {fileID: 11500000, guid: 2d32c31ba3524b440807ed51f78651f3, type: 3}
  m_Name: LensFlare
  m_EditorClassIdentifier: 
  active: 0
  enabled:
    overrideState: 1
    value: 1
--- !u!114 &114434844673836230
MonoBehaviour:
  m_ObjectHideFlags: 3
  m_CorrespondingSourceObject: {fileID: 0}
  m_PrefabInstance: {fileID: 0}
  m_PrefabAsset: {fileID: 0}
  m_GameObject: {fileID: 0}
  m_Enabled: 1
  m_EditorHideFlags: 0
  m_Script: {fileID: 11500000, guid: 9b77c5407dc277943b591ade9e6b18c5, type: 3}
  m_Name: LensDistortion
  m_EditorClassIdentifier: 
  active: 1
  enabled:
    overrideState: 1
    value: 1
  intensity:
    overrideState: 0
    value: 0
  intensityX:
    overrideState: 0
    value: 1
  intensityY:
    overrideState: 0
    value: 1
  centerX:
    overrideState: 0
    value: 0
  centerY:
    overrideState: 0
    value: 0
  scale:
    overrideState: 0
    value: 1
--- !u!114 &114474955449367972
MonoBehaviour:
  m_ObjectHideFlags: 3
  m_CorrespondingSourceObject: {fileID: 0}
  m_PrefabInstance: {fileID: 0}
  m_PrefabAsset: {fileID: 0}
  m_GameObject: {fileID: 0}
  m_Enabled: 1
  m_EditorHideFlags: 0
  m_Script: {fileID: 11500000, guid: 6050e2d5de785ce4d931e4dbdbf2d755, type: 3}
  m_Name: ChromaticAberration
  m_EditorClassIdentifier: 
  active: 1
  enabled:
    overrideState: 1
    value: 1
  spectralLut:
    overrideState: 1
    value: {fileID: 0}
    defaultState: 1
  intensity:
    overrideState: 1
    value: 0.07
  fastMode:
    overrideState: 1
    value: 0
--- !u!114 &114711910838950756
MonoBehaviour:
  m_ObjectHideFlags: 3
  m_CorrespondingSourceObject: {fileID: 0}
  m_PrefabInstance: {fileID: 0}
  m_PrefabAsset: {fileID: 0}
  m_GameObject: {fileID: 0}
  m_Enabled: 1
  m_EditorHideFlags: 0
  m_Script: {fileID: 11500000, guid: b3f6f3f7c722b4544b97e3c75840aa33, type: 3}
  m_Name: AutoExposure
  m_EditorClassIdentifier: 
  active: 1
  enabled:
    overrideState: 1
    value: 1
  filtering:
    overrideState: 1
    value: {x: 1, y: 99}
  minLuminance:
    overrideState: 1
    value: -9
  maxLuminance:
    overrideState: 1
    value: -2
  keyValue:
    overrideState: 1
    value: 0.65
  eyeAdaptation:
    overrideState: 1
    value: 0
  speedUp:
    overrideState: 1
    value: 2
  speedDown:
    overrideState: 1
    value: 1
--- !u!114 &114785499893001766
MonoBehaviour:
  m_ObjectHideFlags: 3
  m_CorrespondingSourceObject: {fileID: 0}
  m_PrefabInstance: {fileID: 0}
  m_PrefabAsset: {fileID: 0}
  m_GameObject: {fileID: 0}
  m_Enabled: 1
  m_EditorHideFlags: 0
  m_Script: {fileID: 11500000, guid: adb84e30e02715445aeb9959894e3b4d, type: 3}
  m_Name: ColorGrading
  m_EditorClassIdentifier: 
  active: 1
  enabled:
    overrideState: 1
    value: 1
  gradingMode:
    overrideState: 1
    value: 1
  externalLut:
    overrideState: 1
    value: {fileID: 11700000, guid: 9bfdbee2c562c1d4b87c00770178be9a, type: 2}
    defaultState: 1
  tonemapper:
    overrideState: 1
    value: 2
  toneCurveToeStrength:
    overrideState: 1
    value: 0
  toneCurveToeLength:
    overrideState: 1
    value: 0.5
  toneCurveShoulderStrength:
    overrideState: 1
    value: 0
  toneCurveShoulderLength:
    overrideState: 1
    value: 0.5
  toneCurveShoulderAngle:
    overrideState: 1
    value: 0
  toneCurveGamma:
    overrideState: 1
    value: 1
  ldrLut:
    overrideState: 1
    value: {fileID: 2800000, guid: 5a8d784d1e70d9043b267192c48edf24, type: 3}
    defaultState: 4
  ldrLutContribution:
    overrideState: 0
    value: 1
  temperature:
    overrideState: 1
    value: -7.5
  tint:
    overrideState: 1
    value: 0
  colorFilter:
    overrideState: 1
    value: {r: 1, g: 1, b: 1, a: 1}
  hueShift:
    overrideState: 1
    value: 0
  saturation:
    overrideState: 1
    value: 0
  brightness:
    overrideState: 1
    value: 0
  postExposure:
    overrideState: 1
    value: 0
  contrast:
    overrideState: 1
    value: 0
  mixerRedOutRedIn:
    overrideState: 1
    value: 100
  mixerRedOutGreenIn:
    overrideState: 1
    value: 0
  mixerRedOutBlueIn:
    overrideState: 1
    value: 0
  mixerGreenOutRedIn:
    overrideState: 1
    value: 0
  mixerGreenOutGreenIn:
    overrideState: 1
    value: 100
  mixerGreenOutBlueIn:
    overrideState: 1
    value: 0
  mixerBlueOutRedIn:
    overrideState: 1
    value: 0
  mixerBlueOutGreenIn:
    overrideState: 1
    value: 0
  mixerBlueOutBlueIn:
    overrideState: 1
    value: 100
  lift:
    overrideState: 1
    value: {x: 1, y: 1, z: 1, w: 0}
  gamma:
    overrideState: 1
    value: {x: 1, y: 1, z: 1, w: 0}
  gain:
    overrideState: 1
    value: {x: 1, y: 1, z: 1, w: 0}
  masterCurve:
    overrideState: 1
    value:
      curve:
        serializedVersion: 2
        m_Curve:
        - serializedVersion: 3
          time: 0
          value: 0
          inSlope: 1
          outSlope: 1
          tangentMode: 0
          weightedMode: 0
          inWeight: 0.33333334
          outWeight: 0.33333334
        - serializedVersion: 3
          time: 1
          value: 1
          inSlope: 1
          outSlope: 1
          tangentMode: 0
          weightedMode: 0
          inWeight: 0.33333334
          outWeight: 0.33333334
        m_PreInfinity: 2
        m_PostInfinity: 2
        m_RotationOrder: 4
      m_Loop: 0
      m_ZeroValue: 0
      m_Range: 1
      cachedData:
      - 0
      - 0.0078125
      - 0.015625
      - 0.0234375
      - 0.03125
      - 0.0390625
      - 0.046875
      - 0.0546875
      - 0.0625
      - 0.0703125
      - 0.078125
      - 0.0859375
      - 0.09375
      - 0.1015625
      - 0.109375
      - 0.1171875
      - 0.125
      - 0.1328125
      - 0.140625
      - 0.1484375
      - 0.15625
      - 0.1640625
      - 0.171875
      - 0.1796875
      - 0.1875
      - 0.1953125
      - 0.203125
      - 0.2109375
      - 0.21875
      - 0.2265625
      - 0.234375
      - 0.2421875
      - 0.25
      - 0.2578125
      - 0.265625
      - 0.2734375
      - 0.28125
      - 0.2890625
      - 0.296875
      - 0.3046875
      - 0.3125
      - 0.3203125
      - 0.328125
      - 0.3359375
      - 0.34375
      - 0.3515625
      - 0.359375
      - 0.3671875
      - 0.375
      - 0.3828125
      - 0.390625
      - 0.3984375
      - 0.40625
      - 0.4140625
      - 0.421875
      - 0.4296875
      - 0.4375
      - 0.4453125
      - 0.453125
      - 0.4609375
      - 0.46875
      - 0.4765625
      - 0.484375
      - 0.4921875
      - 0.5
      - 0.5078125
      - 0.515625
      - 0.5234375
      - 0.53125
      - 0.5390625
      - 0.546875
      - 0.5546875
      - 0.5625
      - 0.5703125
      - 0.578125
      - 0.5859375
      - 0.59375
      - 0.6015625
      - 0.609375
      - 0.6171875
      - 0.625
      - 0.6328125
      - 0.640625
      - 0.6484375
      - 0.65625
      - 0.6640625
      - 0.671875
      - 0.6796875
      - 0.6875
      - 0.6953125
      - 0.703125
      - 0.7109375
      - 0.71875
      - 0.7265625
      - 0.734375
      - 0.7421875
      - 0.75
      - 0.7578125
      - 0.765625
      - 0.7734375
      - 0.78125
      - 0.7890625
      - 0.796875
      - 0.8046875
      - 0.8125
      - 0.8203125
      - 0.828125
      - 0.8359375
      - 0.84375
      - 0.8515625
      - 0.859375
      - 0.8671875
      - 0.875
      - 0.8828125
      - 0.890625
      - 0.8984375
      - 0.90625
      - 0.9140625
      - 0.921875
      - 0.9296875
      - 0.9375
      - 0.9453125
      - 0.953125
      - 0.9609375
      - 0.96875
      - 0.9765625
      - 0.984375
      - 0.9921875
  redCurve:
    overrideState: 1
    value:
      curve:
        serializedVersion: 2
        m_Curve:
        - serializedVersion: 3
          time: 0
          value: 0
          inSlope: 1
          outSlope: 1
          tangentMode: 0
          weightedMode: 0
          inWeight: 0.33333334
          outWeight: 0.33333334
        - serializedVersion: 3
          time: 1
          value: 1
          inSlope: 1
          outSlope: 1
          tangentMode: 0
          weightedMode: 0
          inWeight: 0.33333334
          outWeight: 0.33333334
        m_PreInfinity: 2
        m_PostInfinity: 2
        m_RotationOrder: 4
      m_Loop: 0
      m_ZeroValue: 0
      m_Range: 1
      cachedData:
      - 0
      - 0.0078125
      - 0.015625
      - 0.0234375
      - 0.03125
      - 0.0390625
      - 0.046875
      - 0.0546875
      - 0.0625
      - 0.0703125
      - 0.078125
      - 0.0859375
      - 0.09375
      - 0.1015625
      - 0.109375
      - 0.1171875
      - 0.125
      - 0.1328125
      - 0.140625
      - 0.1484375
      - 0.15625
      - 0.1640625
      - 0.171875
      - 0.1796875
      - 0.1875
      - 0.1953125
      - 0.203125
      - 0.2109375
      - 0.21875
      - 0.2265625
      - 0.234375
      - 0.2421875
      - 0.25
      - 0.2578125
      - 0.265625
      - 0.2734375
      - 0.28125
      - 0.2890625
      - 0.296875
      - 0.3046875
      - 0.3125
      - 0.3203125
      - 0.328125
      - 0.3359375
      - 0.34375
      - 0.3515625
      - 0.359375
      - 0.3671875
      - 0.375
      - 0.3828125
      - 0.390625
      - 0.3984375
      - 0.40625
      - 0.4140625
      - 0.421875
      - 0.4296875
      - 0.4375
      - 0.4453125
      - 0.453125
      - 0.4609375
      - 0.46875
      - 0.4765625
      - 0.484375
      - 0.4921875
      - 0.5
      - 0.5078125
      - 0.515625
      - 0.5234375
      - 0.53125
      - 0.5390625
      - 0.546875
      - 0.5546875
      - 0.5625
      - 0.5703125
      - 0.578125
      - 0.5859375
      - 0.59375
      - 0.6015625
      - 0.609375
      - 0.6171875
      - 0.625
      - 0.6328125
      - 0.640625
      - 0.6484375
      - 0.65625
      - 0.6640625
      - 0.671875
      - 0.6796875
      - 0.6875
      - 0.6953125
      - 0.703125
      - 0.7109375
      - 0.71875
      - 0.7265625
      - 0.734375
      - 0.7421875
      - 0.75
      - 0.7578125
      - 0.765625
      - 0.7734375
      - 0.78125
      - 0.7890625
      - 0.796875
      - 0.8046875
      - 0.8125
      - 0.8203125
      - 0.828125
      - 0.8359375
      - 0.84375
      - 0.8515625
      - 0.859375
      - 0.8671875
      - 0.875
      - 0.8828125
      - 0.890625
      - 0.8984375
      - 0.90625
      - 0.9140625
      - 0.921875
      - 0.9296875
      - 0.9375
      - 0.9453125
      - 0.953125
      - 0.9609375
      - 0.96875
      - 0.9765625
      - 0.984375
      - 0.9921875
  greenCurve:
    overrideState: 1
    value:
      curve:
        serializedVersion: 2
        m_Curve:
        - serializedVersion: 3
          time: 0
          value: 0
          inSlope: 1
          outSlope: 1
          tangentMode: 0
          weightedMode: 0
          inWeight: 0.33333334
          outWeight: 0.33333334
        - serializedVersion: 3
          time: 1
          value: 1
          inSlope: 1
          outSlope: 1
          tangentMode: 0
          weightedMode: 0
          inWeight: 0.33333334
          outWeight: 0.33333334
        m_PreInfinity: 2
        m_PostInfinity: 2
        m_RotationOrder: 4
      m_Loop: 0
      m_ZeroValue: 0
      m_Range: 1
      cachedData:
      - 0
      - 0.0078125
      - 0.015625
      - 0.0234375
      - 0.03125
      - 0.0390625
      - 0.046875
      - 0.0546875
      - 0.0625
      - 0.0703125
      - 0.078125
      - 0.0859375
      - 0.09375
      - 0.1015625
      - 0.109375
      - 0.1171875
      - 0.125
      - 0.1328125
      - 0.140625
      - 0.1484375
      - 0.15625
      - 0.1640625
      - 0.171875
      - 0.1796875
      - 0.1875
      - 0.1953125
      - 0.203125
      - 0.2109375
      - 0.21875
      - 0.2265625
      - 0.234375
      - 0.2421875
      - 0.25
      - 0.2578125
      - 0.265625
      - 0.2734375
      - 0.28125
      - 0.2890625
      - 0.296875
      - 0.3046875
      - 0.3125
      - 0.3203125
      - 0.328125
      - 0.3359375
      - 0.34375
      - 0.3515625
      - 0.359375
      - 0.3671875
      - 0.375
      - 0.3828125
      - 0.390625
      - 0.3984375
      - 0.40625
      - 0.4140625
      - 0.421875
      - 0.4296875
      - 0.4375
      - 0.4453125
      - 0.453125
      - 0.4609375
      - 0.46875
      - 0.4765625
      - 0.484375
      - 0.4921875
      - 0.5
      - 0.5078125
      - 0.515625
      - 0.5234375
      - 0.53125
      - 0.5390625
      - 0.546875
      - 0.5546875
      - 0.5625
      - 0.5703125
      - 0.578125
      - 0.5859375
      - 0.59375
      - 0.6015625
      - 0.609375
      - 0.6171875
      - 0.625
      - 0.6328125
      - 0.640625
      - 0.6484375
      - 0.65625
      - 0.6640625
      - 0.671875
      - 0.6796875
      - 0.6875
      - 0.6953125
      - 0.703125
      - 0.7109375
      - 0.71875
      - 0.7265625
      - 0.734375
      - 0.7421875
      - 0.75
      - 0.7578125
      - 0.765625
      - 0.7734375
      - 0.78125
      - 0.7890625
      - 0.796875
      - 0.8046875
      - 0.8125
      - 0.8203125
      - 0.828125
      - 0.8359375
      - 0.84375
      - 0.8515625
      - 0.859375
      - 0.8671875
      - 0.875
      - 0.8828125
      - 0.890625
      - 0.8984375
      - 0.90625
      - 0.9140625
      - 0.921875
      - 0.9296875
      - 0.9375
      - 0.9453125
      - 0.953125
      - 0.9609375
      - 0.96875
      - 0.9765625
      - 0.984375
      - 0.9921875
  blueCurve:
    overrideState: 1
    value:
      curve:
        serializedVersion: 2
        m_Curve:
        - serializedVersion: 3
          time: 0
          value: 0
          inSlope: 1
          outSlope: 1
          tangentMode: 0
          weightedMode: 0
          inWeight: 0.33333334
          outWeight: 0.33333334
        - serializedVersion: 3
          time: 1
          value: 1
          inSlope: 1
          outSlope: 1
          tangentMode: 0
          weightedMode: 0
          inWeight: 0.33333334
          outWeight: 0.33333334
        m_PreInfinity: 2
        m_PostInfinity: 2
        m_RotationOrder: 4
      m_Loop: 0
      m_ZeroValue: 0
      m_Range: 1
      cachedData:
      - 0
      - 0.0078125
      - 0.015625
      - 0.0234375
      - 0.03125
      - 0.0390625
      - 0.046875
      - 0.0546875
      - 0.0625
      - 0.0703125
      - 0.078125
      - 0.0859375
      - 0.09375
      - 0.1015625
      - 0.109375
      - 0.1171875
      - 0.125
      - 0.1328125
      - 0.140625
      - 0.1484375
      - 0.15625
      - 0.1640625
      - 0.171875
      - 0.1796875
      - 0.1875
      - 0.1953125
      - 0.203125
      - 0.2109375
      - 0.21875
      - 0.2265625
      - 0.234375
      - 0.2421875
      - 0.25
      - 0.2578125
      - 0.265625
      - 0.2734375
      - 0.28125
      - 0.2890625
      - 0.296875
      - 0.3046875
      - 0.3125
      - 0.3203125
      - 0.328125
      - 0.3359375
      - 0.34375
      - 0.3515625
      - 0.359375
      - 0.3671875
      - 0.375
      - 0.3828125
      - 0.390625
      - 0.3984375
      - 0.40625
      - 0.4140625
      - 0.421875
      - 0.4296875
      - 0.4375
      - 0.4453125
      - 0.453125
      - 0.4609375
      - 0.46875
      - 0.4765625
      - 0.484375
      - 0.4921875
      - 0.5
      - 0.5078125
      - 0.515625
      - 0.5234375
      - 0.53125
      - 0.5390625
      - 0.546875
      - 0.5546875
      - 0.5625
      - 0.5703125
      - 0.578125
      - 0.5859375
      - 0.59375
      - 0.6015625
      - 0.609375
      - 0.6171875
      - 0.625
      - 0.6328125
      - 0.640625
      - 0.6484375
      - 0.65625
      - 0.6640625
      - 0.671875
      - 0.6796875
      - 0.6875
      - 0.6953125
      - 0.703125
      - 0.7109375
      - 0.71875
      - 0.7265625
      - 0.734375
      - 0.7421875
      - 0.75
      - 0.7578125
      - 0.765625
      - 0.7734375
      - 0.78125
      - 0.7890625
      - 0.796875
      - 0.8046875
      - 0.8125
      - 0.8203125
      - 0.828125
      - 0.8359375
      - 0.84375
      - 0.8515625
      - 0.859375
      - 0.8671875
      - 0.875
      - 0.8828125
      - 0.890625
      - 0.8984375
      - 0.90625
      - 0.9140625
      - 0.921875
      - 0.9296875
      - 0.9375
      - 0.9453125
      - 0.953125
      - 0.9609375
      - 0.96875
      - 0.9765625
      - 0.984375
      - 0.9921875
  hueVsHueCurve:
    overrideState: 1
    value:
      curve:
        serializedVersion: 2
        m_Curve:
        - serializedVersion: 3
          time: 0.21468927
          value: 0.5
          inSlope: 0
          outSlope: 0
          tangentMode: 0
          weightedMode: 0
          inWeight: 0
          outWeight: 0
        - serializedVersion: 3
          time: 0.3258004
          value: 0.32421875
          inSlope: 0
          outSlope: 0
          tangentMode: 0
          weightedMode: 0
          inWeight: 0
          outWeight: 0
        - serializedVersion: 3
          time: 0.4180791
          value: 0.5
          inSlope: 0
          outSlope: 0
          tangentMode: 0
          weightedMode: 0
          inWeight: 0
          outWeight: 0
        m_PreInfinity: 2
        m_PostInfinity: 2
        m_RotationOrder: 0
      m_Loop: 1
      m_ZeroValue: 0.5
      m_Range: 1
      cachedData:
      - 0.5
      - 0.5
      - 0.5
      - 0.5
      - 0.5
      - 0.5
      - 0.5
      - 0.5
      - 0.5
      - 0.5
      - 0.5
      - 0.5
      - 0.5
      - 0.5
      - 0.5
      - 0.5
      - 0.5
      - 0.5
      - 0.5
      - 0.5
      - 0.5
      - 0.5
      - 0.5
      - 0.5
      - 0.5
      - 0.5
      - 0.5
      - 0.5
      - 0.49931282
      - 0.49440733
      - 0.485402
      - 0.47303003
      - 0.45802477
      - 0.4411194
      - 0.42304718
      - 0.40454137
      - 0.3863352
      - 0.36916193
      - 0.35375482
      - 0.3408471
      - 0.33117202
      - 0.32546282
      - 0.32454777
      - 0.33011654
      - 0.34158403
      - 0.3576702
      - 0.37709507
      - 0.39857858
      - 0.42084074
      - 0.4426015
      - 0.4625808
      - 0.47949865
      - 0.49207503
      - 0.4990299
      - 0.5
      - 0.5
      - 0.5
      - 0.5
      - 0.5
      - 0.5
      - 0.5
      - 0.5
      - 0.5
      - 0.5
      - 0.5
      - 0.5
      - 0.5
      - 0.5
      - 0.5
      - 0.5
      - 0.5
      - 0.5
      - 0.5
      - 0.5
      - 0.5
      - 0.5
      - 0.5
      - 0.5
      - 0.5
      - 0.5
      - 0.5
      - 0.5
      - 0.5
      - 0.5
      - 0.5
      - 0.5
      - 0.5
      - 0.5
      - 0.5
      - 0.5
      - 0.5
      - 0.5
      - 0.5
      - 0.5
      - 0.5
      - 0.5
      - 0.5
      - 0.5
      - 0.5
      - 0.5
      - 0.5
      - 0.5
      - 0.5
      - 0.5
      - 0.5
      - 0.5
      - 0.5
      - 0.5
      - 0.5
      - 0.5
      - 0.5
      - 0.5
      - 0.5
      - 0.5
      - 0.5
      - 0.5
      - 0.5
      - 0.5
      - 0.5
      - 0.5
      - 0.5
      - 0.5
      - 0.5
      - 0.5
      - 0.5
      - 0.5
      - 0.5
      - 0.5
  hueVsSatCurve:
    overrideState: 1
    value:
      curve:
        serializedVersion: 2
        m_Curve:
        - serializedVersion: 3
          time: 0.04918033
          value: 0.4754902
          inSlope: 0
          outSlope: 0
          tangentMode: 0
          weightedMode: 0
          inWeight: 0
          outWeight: 0
        - serializedVersion: 3
          time: 0.9437939
          value: 0.46078432
          inSlope: 0
          outSlope: 0
          tangentMode: 0
          weightedMode: 0
          inWeight: 0
          outWeight: 0
        - serializedVersion: 3
          time: 1
          value: 1
          inSlope: 0
          outSlope: 0
          tangentMode: 0
          weightedMode: 0
          inWeight: 0
          outWeight: 0
        m_PreInfinity: 2
        m_PostInfinity: 2
        m_RotationOrder: 4
      m_Loop: 1
      m_ZeroValue: 0.5
      m_Range: 1
      cachedData:
      - 1
      - 0.9644977
      - 0.87481123
      - 0.7561714
      - 0.633809
      - 0.5329548
      - 0.47883952
      - 0.47548854
      - 0.47548053
      - 0.47546598
      - 0.47544503
      - 0.47541776
      - 0.47538435
      - 0.47534487
      - 0.47529945
      - 0.4752482
      - 0.47519124
      - 0.47512868
      - 0.47506067
      - 0.4749873
      - 0.4749087
      - 0.47482497
      - 0.47473624
      - 0.47464263
      - 0.47454426
      - 0.47444126
      - 0.4743337
      - 0.47422174
      - 0.47410548
      - 0.47398505
      - 0.47386053
      - 0.47373208
      - 0.47359982
      - 0.47346383
      - 0.47332427
      - 0.47318125
      - 0.47303486
      - 0.47288522
      - 0.47273245
      - 0.4725767
      - 0.47241807
      - 0.47225666
      - 0.4720926
      - 0.471926
      - 0.471757
      - 0.4715857
      - 0.4714122
      - 0.47123665
      - 0.47105917
      - 0.47087985
      - 0.4706988
      - 0.4705162
      - 0.4703321
      - 0.47014663
      - 0.46995994
      - 0.46977213
      - 0.4695833
      - 0.46939358
      - 0.4692031
      - 0.469012
      - 0.4688203
      - 0.46862823
      - 0.46843585
      - 0.46824327
      - 0.46805066
      - 0.46785808
      - 0.46766567
      - 0.46747354
      - 0.46728182
      - 0.46709064
      - 0.46690008
      - 0.4667103
      - 0.46652138
      - 0.46633345
      - 0.46614665
      - 0.46596104
      - 0.4657768
      - 0.46559402
      - 0.46541283
      - 0.46523333
      - 0.46505564
      - 0.4648799
      - 0.4647062
      - 0.46453467
      - 0.46436545
      - 0.4641986
      - 0.4640343
      - 0.4638726
      - 0.46371368
      - 0.46355763
      - 0.46340457
      - 0.4632546
      - 0.46310788
      - 0.4629645
      - 0.46282458
      - 0.46268824
      - 0.4625556
      - 0.46242675
      - 0.46230185
      - 0.462181
      - 0.46206433
      - 0.4619519
      - 0.4618439
      - 0.46174043
      - 0.46164158
      - 0.4615475
      - 0.46145827
      - 0.46137404
      - 0.46129492
      - 0.461221
      - 0.46115243
      - 0.46108934
      - 0.46103182
      - 0.46098
      - 0.46093398
      - 0.4608939
      - 0.46085984
      - 0.46083197
      - 0.46081036
      - 0.46079516
      - 0.4607865
      - 0.46194392
      - 0.5004343
      - 0.5806771
      - 0.6852959
      - 0.7969141
      - 0.89815533
      - 0.9716428
  satVsSatCurve:
    overrideState: 1
    value:
      curve:
        serializedVersion: 2
        m_Curve: []
        m_PreInfinity: 2
        m_PostInfinity: 2
        m_RotationOrder: 4
      m_Loop: 0
      m_ZeroValue: 0.5
      m_Range: 1
      cachedData:
      - 0.5
      - 0.5
      - 0.5
      - 0.5
      - 0.5
      - 0.5
      - 0.5
      - 0.5
      - 0.5
      - 0.5
      - 0.5
      - 0.5
      - 0.5
      - 0.5
      - 0.5
      - 0.5
      - 0.5
      - 0.5
      - 0.5
      - 0.5
      - 0.5
      - 0.5
      - 0.5
      - 0.5
      - 0.5
      - 0.5
      - 0.5
      - 0.5
      - 0.5
      - 0.5
      - 0.5
      - 0.5
      - 0.5
      - 0.5
      - 0.5
      - 0.5
      - 0.5
      - 0.5
      - 0.5
      - 0.5
      - 0.5
      - 0.5
      - 0.5
      - 0.5
      - 0.5
      - 0.5
      - 0.5
      - 0.5
      - 0.5
      - 0.5
      - 0.5
      - 0.5
      - 0.5
      - 0.5
      - 0.5
      - 0.5
      - 0.5
      - 0.5
      - 0.5
      - 0.5
      - 0.5
      - 0.5
      - 0.5
      - 0.5
      - 0.5
      - 0.5
      - 0.5
      - 0.5
      - 0.5
      - 0.5
      - 0.5
      - 0.5
      - 0.5
      - 0.5
      - 0.5
      - 0.5
      - 0.5
      - 0.5
      - 0.5
      - 0.5
      - 0.5
      - 0.5
      - 0.5
      - 0.5
      - 0.5
      - 0.5
      - 0.5
      - 0.5
      - 0.5
      - 0.5
      - 0.5
      - 0.5
      - 0.5
      - 0.5
      - 0.5
      - 0.5
      - 0.5
      - 0.5
      - 0.5
      - 0.5
      - 0.5
      - 0.5
      - 0.5
      - 0.5
      - 0.5
      - 0.5
      - 0.5
      - 0.5
      - 0.5
      - 0.5
      - 0.5
      - 0.5
      - 0.5
      - 0.5
      - 0.5
      - 0.5
      - 0.5
      - 0.5
      - 0.5
      - 0.5
      - 0.5
      - 0.5
      - 0.5
      - 0.5
      - 0.5
      - 0.5
      - 0.5
      - 0.5
  lumVsSatCurve:
    overrideState: 1
    value:
      curve:
        serializedVersion: 2
        m_Curve: []
        m_PreInfinity: 2
        m_PostInfinity: 2
        m_RotationOrder: 0
      m_Loop: 0
      m_ZeroValue: 0.5
      m_Range: 1
      cachedData:
      - 0.5
      - 0.5
      - 0.5
      - 0.5
      - 0.5
      - 0.5
      - 0.5
      - 0.5
      - 0.5
      - 0.5
      - 0.5
      - 0.5
      - 0.5
      - 0.5
      - 0.5
      - 0.5
      - 0.5
      - 0.5
      - 0.5
      - 0.5
      - 0.5
      - 0.5
      - 0.5
      - 0.5
      - 0.5
      - 0.5
      - 0.5
      - 0.5
      - 0.5
      - 0.5
      - 0.5
      - 0.5
      - 0.5
      - 0.5
      - 0.5
      - 0.5
      - 0.5
      - 0.5
      - 0.5
      - 0.5
      - 0.5
      - 0.5
      - 0.5
      - 0.5
      - 0.5
      - 0.5
      - 0.5
      - 0.5
      - 0.5
      - 0.5
      - 0.5
      - 0.5
      - 0.5
      - 0.5
      - 0.5
      - 0.5
      - 0.5
      - 0.5
      - 0.5
      - 0.5
      - 0.5
      - 0.5
      - 0.5
      - 0.5
      - 0.5
      - 0.5
      - 0.5
      - 0.5
      - 0.5
      - 0.5
      - 0.5
      - 0.5
      - 0.5
      - 0.5
      - 0.5
      - 0.5
      - 0.5
      - 0.5
      - 0.5
      - 0.5
      - 0.5
      - 0.5
      - 0.5
      - 0.5
      - 0.5
      - 0.5
      - 0.5
      - 0.5
      - 0.5
      - 0.5
      - 0.5
      - 0.5
      - 0.5
      - 0.5
      - 0.5
      - 0.5
      - 0.5
      - 0.5
      - 0.5
      - 0.5
      - 0.5
      - 0.5
      - 0.5
      - 0.5
      - 0.5
      - 0.5
      - 0.5
      - 0.5
      - 0.5
      - 0.5
      - 0.5
      - 0.5
      - 0.5
      - 0.5
      - 0.5
      - 0.5
      - 0.5
      - 0.5
      - 0.5
      - 0.5
      - 0.5
      - 0.5
      - 0.5
      - 0.5
      - 0.5
      - 0.5
      - 0.5
      - 0.5
--- !u!114 &114824239782085478
MonoBehaviour:
  m_ObjectHideFlags: 3
  m_CorrespondingSourceObject: {fileID: 0}
  m_PrefabInstance: {fileID: 0}
  m_PrefabAsset: {fileID: 0}
  m_GameObject: {fileID: 0}
  m_Enabled: 1
  m_EditorHideFlags: 0
  m_Script: {fileID: 11500000, guid: 2d32c31ba3524b440807ed51f78651f3, type: 3}
  m_Name: LensFlare
  m_EditorClassIdentifier: 
  active: 1
  enabled:
    overrideState: 1
    value: 1
--- !u!114 &114865871779564460
MonoBehaviour:
  m_ObjectHideFlags: 3
  m_CorrespondingSourceObject: {fileID: 0}
  m_PrefabInstance: {fileID: 0}
  m_PrefabAsset: {fileID: 0}
  m_GameObject: {fileID: 0}
  m_Enabled: 1
  m_EditorHideFlags: 0
  m_Script: {fileID: 11500000, guid: c1cb7e9e120078f43bce4f0b1be547a7, type: 3}
  m_Name: AmbientOcclusion
  m_EditorClassIdentifier: 
  active: 1
  enabled:
    overrideState: 1
    value: 1
  mode:
    overrideState: 1
    value: 1
  intensity:
    overrideState: 1
    value: 0.6
  color:
    overrideState: 1
    value: {r: 0, g: 0, b: 0, a: 1}
  ambientOnly:
    overrideState: 1
    value: 0
  noiseFilterTolerance:
    overrideState: 1
    value: 0
  blurTolerance:
    overrideState: 1
    value: -4.6
  upsampleTolerance:
    overrideState: 1
    value: -12
  thicknessModifier:
    overrideState: 1
    value: 1
  directLightingStrength:
    overrideState: 1
    value: 1
  radius:
    overrideState: 1
    value: 0.25
  quality:
    overrideState: 1
    value: 2
--- !u!114 &114897432393837734
MonoBehaviour:
  m_ObjectHideFlags: 3
  m_CorrespondingSourceObject: {fileID: 0}
  m_PrefabInstance: {fileID: 0}
  m_PrefabAsset: {fileID: 0}
  m_GameObject: {fileID: 0}
  m_Enabled: 1
  m_EditorHideFlags: 0
  m_Script: {fileID: 11500000, guid: 9b77c5407dc277943b591ade9e6b18c5, type: 3}
  m_Name: LensDistortion
  m_EditorClassIdentifier: 
  active: 1
  enabled:
    overrideState: 1
    value: 1
  intensity:
    overrideState: 1
    value: 19.1
  intensityX:
    overrideState: 1
    value: 1
  intensityY:
    overrideState: 1
    value: 1
  centerX:
    overrideState: 1
    value: 0
  centerY:
    overrideState: 1
    value: 0
  scale:
    overrideState: 1
    value: 1.02
--- !u!114 &114925598449813224
MonoBehaviour:
  m_ObjectHideFlags: 3
  m_CorrespondingSourceObject: {fileID: 0}
  m_PrefabInstance: {fileID: 0}
  m_PrefabAsset: {fileID: 0}
  m_GameObject: {fileID: 0}
  m_Enabled: 1
  m_EditorHideFlags: 0
  m_Script: {fileID: 11500000, guid: d65e486e4de6e5448a8fbb43dc8756a0, type: 3}
  m_Name: Grain
  m_EditorClassIdentifier: 
  active: 1
  enabled:
    overrideState: 1
    value: 1
  colored:
    overrideState: 0
    value: 1
  intensity:
    overrideState: 0
    value: 0
  size:
    overrideState: 0
    value: 1
  lumContrib:
    overrideState: 0
    value: 0.8
--- !u!114 &114958725139066630
MonoBehaviour:
  m_ObjectHideFlags: 3
  m_CorrespondingSourceObject: {fileID: 0}
  m_PrefabInstance: {fileID: 0}
  m_PrefabAsset: {fileID: 0}
  m_GameObject: {fileID: 0}
  m_Enabled: 1
  m_EditorHideFlags: 0
  m_Script: {fileID: 11500000, guid: b94fcd11afffcb142908bfcb1e261fba, type: 3}
  m_Name: MotionBlur
  m_EditorClassIdentifier: 
  active: 1
  enabled:
    overrideState: 1
    value: 1
  shutterAngle:
    overrideState: 1
    value: 360
  sampleCount:
    overrideState: 1
    value: 32
