%YAML 1.1
%TAG !u! tag:unity3d.com,2011:
--- !u!21 &2100000
Material:
  serializedVersion: 6
  m_ObjectHideFlags: 0
  m_CorrespondingSourceObject: {fileID: 0}
  m_PrefabInstance: {fileID: 0}
  m_PrefabAsset: {fileID: 0}
  m_Name: trunk_NoDisplacement_BakedWind
  m_Shader: {fileID: 2, guid: 0000000000000000f000000000000000, type: 0}
  m_ShaderKeywords: _ANIM_HIERARCHY_PIVOT _HEIGHTMAP _MASKMAP _NORMALMAP _NORMALMAP_TANGENT_SPACE
  m_LightmapFlags: 4
  m_EnableInstancingVariants: 1
  m_DoubleSidedGI: 0
  m_CustomRenderQueue: -1
  stringTagMap: {}
  disabledShaderPasses:
  - DistortionVectors
  - TransparentBackfaceDebugDisplay
  - TransparentDepthPrepass
  - TransparentDepthPostpass
  - TransparentBackface
  - MOTIONVECTORS
  m_SavedProperties:
    serializedVersion: 3
    m_TexEnvs:
    - _AnisotropyMap:
        m_Texture: {fileID: 0}
        m_Scale: {x: 1, y: 1}
        m_Offset: {x: 0, y: 0}
    - _AnisotropyMapT2DA:
        m_Texture: {fileID: 0}
        m_Scale: {x: 1, y: 1}
        m_Offset: {x: 0, y: 0}
    - _BaseColorMap:
        m_Texture: {fileID: 2800000, guid: 939e708485f472849932e5cbb88366b5, type: 3}
        m_Scale: {x: 1, y: 1}
        m_Offset: {x: 0, y: 0}
    - _BaseColorMap0:
        m_Texture: {fileID: 0}
        m_Scale: {x: 1, y: 1}
        m_Offset: {x: 0, y: 0}
    - _BaseColorMap1:
        m_Texture: {fileID: 0}
        m_Scale: {x: 1, y: 1}
        m_Offset: {x: 0, y: 0}
    - _BaseColorMap2:
        m_Texture: {fileID: 0}
        m_Scale: {x: 1, y: 1}
        m_Offset: {x: 0, y: 0}
    - _BaseColorMap3:
        m_Texture: {fileID: 0}
        m_Scale: {x: 1, y: 1}
        m_Offset: {x: 0, y: 0}
    - _BaseColorMapT2DA:
        m_Texture: {fileID: 0}
        m_Scale: {x: 1, y: 1}
        m_Offset: {x: 0, y: 0}
    - _BentNormalMap:
        m_Texture: {fileID: 0}
        m_Scale: {x: 1, y: 1}
        m_Offset: {x: 0, y: 0}
    - _BentNormalMap0:
        m_Texture: {fileID: 0}
        m_Scale: {x: 1, y: 1}
        m_Offset: {x: 0, y: 0}
    - _BentNormalMap1:
        m_Texture: {fileID: 0}
        m_Scale: {x: 1, y: 1}
        m_Offset: {x: 0, y: 0}
    - _BentNormalMap2:
        m_Texture: {fileID: 0}
        m_Scale: {x: 1, y: 1}
        m_Offset: {x: 0, y: 0}
    - _BentNormalMap3:
        m_Texture: {fileID: 0}
        m_Scale: {x: 1, y: 1}
        m_Offset: {x: 0, y: 0}
    - _BentNormalMapOS:
        m_Texture: {fileID: 0}
        m_Scale: {x: 1, y: 1}
        m_Offset: {x: 0, y: 0}
    - _BentNormalMapOS0:
        m_Texture: {fileID: 0}
        m_Scale: {x: 1, y: 1}
        m_Offset: {x: 0, y: 0}
    - _BentNormalMapOS1:
        m_Texture: {fileID: 0}
        m_Scale: {x: 1, y: 1}
        m_Offset: {x: 0, y: 0}
    - _BentNormalMapOS2:
        m_Texture: {fileID: 0}
        m_Scale: {x: 1, y: 1}
        m_Offset: {x: 0, y: 0}
    - _BentNormalMapOS3:
        m_Texture: {fileID: 0}
        m_Scale: {x: 1, y: 1}
        m_Offset: {x: 0, y: 0}
    - _BumpMap:
        m_Texture: {fileID: 2800000, guid: 86ad3a99dd9ec9d469a84987cc897ef2, type: 3}
        m_Scale: {x: 1, y: 1}
        m_Offset: {x: 0, y: 0}
    - _CoatMaskMap:
        m_Texture: {fileID: 0}
        m_Scale: {x: 1, y: 1}
        m_Offset: {x: 0, y: 0}
    - _DetailAlbedoMap:
        m_Texture: {fileID: 0}
        m_Scale: {x: 10, y: 10}
        m_Offset: {x: 0, y: 0}
    - _DetailMap:
        m_Texture: {fileID: 0}
        m_Scale: {x: 1, y: 1}
        m_Offset: {x: 0, y: 0}
    - _DetailMap0:
        m_Texture: {fileID: 0}
        m_Scale: {x: 1, y: 1}
        m_Offset: {x: 0, y: 0}
    - _DetailMap1:
        m_Texture: {fileID: 0}
        m_Scale: {x: 1, y: 1}
        m_Offset: {x: 0, y: 0}
    - _DetailMap2:
        m_Texture: {fileID: 0}
        m_Scale: {x: 1, y: 1}
        m_Offset: {x: 0, y: 0}
    - _DetailMap2T2DA:
        m_Texture: {fileID: 0}
        m_Scale: {x: 1, y: 1}
        m_Offset: {x: 0, y: 0}
    - _DetailMap3:
        m_Texture: {fileID: 0}
        m_Scale: {x: 1, y: 1}
        m_Offset: {x: 0, y: 0}
    - _DetailMap3T2DA:
        m_Texture: {fileID: 0}
        m_Scale: {x: 1, y: 1}
        m_Offset: {x: 0, y: 0}
    - _DetailMapT2DA:
        m_Texture: {fileID: 0}
        m_Scale: {x: 1, y: 1}
        m_Offset: {x: 0, y: 0}
    - _DetailMask:
        m_Texture: {fileID: 0}
        m_Scale: {x: 1, y: 1}
        m_Offset: {x: 0, y: 0}
    - _DetailMaskT2DA:
        m_Texture: {fileID: 0}
        m_Scale: {x: 1, y: 1}
        m_Offset: {x: 0, y: 0}
    - _DetailNormalMap:
        m_Texture: {fileID: 0}
        m_Scale: {x: 1, y: 1}
        m_Offset: {x: 0, y: 0}
    - _DisplacementMap:
        m_Texture: {fileID: 0}
        m_Scale: {x: 1, y: 1}
        m_Offset: {x: 0, y: 0}
    - _DistortionVectorMap:
        m_Texture: {fileID: 0}
        m_Scale: {x: 1, y: 1}
        m_Offset: {x: 0, y: 0}
    - _DistortionVectorMapT2DA:
        m_Texture: {fileID: 0}
        m_Scale: {x: 1, y: 1}
        m_Offset: {x: 0, y: 0}
    - _EmissionMap:
        m_Texture: {fileID: 0}
        m_Scale: {x: 1, y: 1}
        m_Offset: {x: 0, y: 0}
    - _EmissiveColorMap:
        m_Texture: {fileID: 0}
        m_Scale: {x: 1, y: 1}
        m_Offset: {x: 0, y: 0}
    - _EmissiveColorMapT2DA:
        m_Texture: {fileID: 0}
        m_Scale: {x: 1, y: 1}
        m_Offset: {x: 0, y: 0}
    - _Full2DetailAlbedoMap:
        m_Texture: {fileID: 0}
        m_Scale: {x: 1, y: 1}
        m_Offset: {x: 0, y: 0}
    - _Full2DetailAlbedoMapT2DA:
        m_Texture: {fileID: 0}
        m_Scale: {x: 1, y: 1}
        m_Offset: {x: 0, y: 0}
    - _Full2DetailNormalMap:
        m_Texture: {fileID: 0}
        m_Scale: {x: 1, y: 1}
        m_Offset: {x: 0, y: 0}
    - _Full2DetailNormalMapT2DA:
        m_Texture: {fileID: 0}
        m_Scale: {x: 1, y: 1}
        m_Offset: {x: 0, y: 0}
    - _FullDetailAlbedoMap:
        m_Texture: {fileID: 0}
        m_Scale: {x: 1, y: 1}
        m_Offset: {x: 0, y: 0}
    - _FullDetailAlbedoMapT2DA:
        m_Texture: {fileID: 0}
        m_Scale: {x: 1, y: 1}
        m_Offset: {x: 0, y: 0}
    - _FullDetailDensityMap:
        m_Texture: {fileID: 0}
        m_Scale: {x: 1, y: 1}
        m_Offset: {x: 0, y: 0}
    - _FullDetailDensityMapT2DA:
        m_Texture: {fileID: 0}
        m_Scale: {x: 1, y: 1}
        m_Offset: {x: 0, y: 0}
    - _FullDetailNormalMap:
        m_Texture: {fileID: 0}
        m_Scale: {x: 1, y: 1}
        m_Offset: {x: 0, y: 0}
    - _FullDetailNormalMapT2DA:
        m_Texture: {fileID: 0}
        m_Scale: {x: 1, y: 1}
        m_Offset: {x: 0, y: 0}
    - _FuzzMap:
        m_Texture: {fileID: 0}
        m_Scale: {x: 1, y: 1}
        m_Offset: {x: 0, y: 0}
    - _FuzzMapT2DA:
        m_Texture: {fileID: 0}
        m_Scale: {x: 1, y: 1}
        m_Offset: {x: 0, y: 0}
    - _HeightMap:
        m_Texture: {fileID: 2800000, guid: 13cec6f83d5542046a7413c65f702a99, type: 3}
        m_Scale: {x: 1, y: 1}
        m_Offset: {x: 0, y: 0}
    - _HeightMap0:
        m_Texture: {fileID: 0}
        m_Scale: {x: 1, y: 1}
        m_Offset: {x: 0, y: 0}
    - _HeightMap1:
        m_Texture: {fileID: 0}
        m_Scale: {x: 1, y: 1}
        m_Offset: {x: 0, y: 0}
    - _HeightMap2:
        m_Texture: {fileID: 0}
        m_Scale: {x: 1, y: 1}
        m_Offset: {x: 0, y: 0}
    - _HeightMap3:
        m_Texture: {fileID: 0}
        m_Scale: {x: 1, y: 1}
        m_Offset: {x: 0, y: 0}
    - _HeightMapT2DA:
        m_Texture: {fileID: 0}
        m_Scale: {x: 1, y: 1}
        m_Offset: {x: 0, y: 0}
    - _IridescenceMaskMap:
        m_Texture: {fileID: 0}
        m_Scale: {x: 1, y: 1}
        m_Offset: {x: 0, y: 0}
    - _IridescenceThicknessMap:
        m_Texture: {fileID: 0}
        m_Scale: {x: 1, y: 1}
        m_Offset: {x: 0, y: 0}
    - _LayerInfluenceMaskMap:
        m_Texture: {fileID: 0}
        m_Scale: {x: 1, y: 1}
        m_Offset: {x: 0, y: 0}
    - _LayerMaskMap:
        m_Texture: {fileID: 0}
        m_Scale: {x: 1, y: 1}
        m_Offset: {x: 0, y: 0}
    - _MainTex:
        m_Texture: {fileID: 2800000, guid: 939e708485f472849932e5cbb88366b5, type: 3}
        m_Scale: {x: 1, y: 1}
        m_Offset: {x: 0, y: 0}
    - _MaskMap:
        m_Texture: {fileID: 2800000, guid: 6043025a03e850c40a2353f46baaf478, type: 3}
        m_Scale: {x: 1, y: 1}
        m_Offset: {x: 0, y: 0}
    - _MaskMap0:
        m_Texture: {fileID: 0}
        m_Scale: {x: 1, y: 1}
        m_Offset: {x: 0, y: 0}
    - _MaskMap1:
        m_Texture: {fileID: 0}
        m_Scale: {x: 1, y: 1}
        m_Offset: {x: 0, y: 0}
    - _MaskMap2:
        m_Texture: {fileID: 0}
        m_Scale: {x: 1, y: 1}
        m_Offset: {x: 0, y: 0}
    - _MaskMap3:
        m_Texture: {fileID: 0}
        m_Scale: {x: 1, y: 1}
        m_Offset: {x: 0, y: 0}
    - _MaskMapT2DA:
        m_Texture: {fileID: 0}
        m_Scale: {x: 1, y: 1}
        m_Offset: {x: 0, y: 0}
    - _MetallicGlossMap:
        m_Texture: {fileID: 0}
        m_Scale: {x: 1, y: 1}
        m_Offset: {x: 0, y: 0}
    - _MotionVectorScaleMap:
        m_Texture: {fileID: 0}
        m_Scale: {x: 1, y: 1}
        m_Offset: {x: 0, y: 0}
    - _NormalMap:
        m_Texture: {fileID: 2800000, guid: 86ad3a99dd9ec9d469a84987cc897ef2, type: 3}
        m_Scale: {x: 1, y: 1}
        m_Offset: {x: 0, y: 0}
    - _NormalMap0:
        m_Texture: {fileID: 0}
        m_Scale: {x: 1, y: 1}
        m_Offset: {x: 0, y: 0}
    - _NormalMap1:
        m_Texture: {fileID: 0}
        m_Scale: {x: 1, y: 1}
        m_Offset: {x: 0, y: 0}
    - _NormalMap2:
        m_Texture: {fileID: 0}
        m_Scale: {x: 1, y: 1}
        m_Offset: {x: 0, y: 0}
    - _NormalMap3:
        m_Texture: {fileID: 0}
        m_Scale: {x: 1, y: 1}
        m_Offset: {x: 0, y: 0}
    - _NormalMapOS:
        m_Texture: {fileID: 0}
        m_Scale: {x: 1, y: 1}
        m_Offset: {x: 0, y: 0}
    - _NormalMapOS0:
        m_Texture: {fileID: 0}
        m_Scale: {x: 1, y: 1}
        m_Offset: {x: 0, y: 0}
    - _NormalMapOS1:
        m_Texture: {fileID: 0}
        m_Scale: {x: 1, y: 1}
        m_Offset: {x: 0, y: 0}
    - _NormalMapOS2:
        m_Texture: {fileID: 0}
        m_Scale: {x: 1, y: 1}
        m_Offset: {x: 0, y: 0}
    - _NormalMapOS3:
        m_Texture: {fileID: 0}
        m_Scale: {x: 1, y: 1}
        m_Offset: {x: 0, y: 0}
    - _NormalMapOST2DA:
        m_Texture: {fileID: 0}
        m_Scale: {x: 1, y: 1}
        m_Offset: {x: 0, y: 0}
    - _NormalMapT2DA:
        m_Texture: {fileID: 0}
        m_Scale: {x: 1, y: 1}
        m_Offset: {x: 0, y: 0}
    - _ObjectSpaceBaseNormalMap:
        m_Texture: {fileID: 0}
        m_Scale: {x: 1, y: 1}
        m_Offset: {x: 0, y: 0}
    - _OcclusionMap:
        m_Texture: {fileID: 2800000, guid: 6043025a03e850c40a2353f46baaf478, type: 3}
        m_Scale: {x: 1, y: 1}
        m_Offset: {x: 0, y: 0}
    - _ParallaxMap:
        m_Texture: {fileID: 2800000, guid: 13cec6f83d5542046a7413c65f702a99, type: 3}
        m_Scale: {x: 1, y: 1}
        m_Offset: {x: 0, y: 0}
    - _SpecGlossMap:
        m_Texture: {fileID: 0}
        m_Scale: {x: 1, y: 1}
        m_Offset: {x: 0, y: 0}
    - _SpecularColorMap:
        m_Texture: {fileID: 0}
        m_Scale: {x: 1, y: 1}
        m_Offset: {x: 0, y: 0}
    - _SpecularColorMapT2DA:
        m_Texture: {fileID: 0}
        m_Scale: {x: 1, y: 1}
        m_Offset: {x: 0, y: 0}
    - _SpecularOcclusionMap:
        m_Texture: {fileID: 0}
        m_Scale: {x: 1, y: 1}
        m_Offset: {x: 0, y: 0}
    - _SpecularOcclusionMapT2DA:
        m_Texture: {fileID: 0}
        m_Scale: {x: 1, y: 1}
        m_Offset: {x: 0, y: 0}
    - _SubsurfaceMaskMap:
        m_Texture: {fileID: 0}
        m_Scale: {x: 1, y: 1}
        m_Offset: {x: 0, y: 0}
    - _SubsurfaceMaskMap0:
        m_Texture: {fileID: 0}
        m_Scale: {x: 1, y: 1}
        m_Offset: {x: 0, y: 0}
    - _SubsurfaceMaskMap1:
        m_Texture: {fileID: 0}
        m_Scale: {x: 1, y: 1}
        m_Offset: {x: 0, y: 0}
    - _SubsurfaceMaskMap2:
        m_Texture: {fileID: 0}
        m_Scale: {x: 1, y: 1}
        m_Offset: {x: 0, y: 0}
    - _SubsurfaceMaskMap3:
        m_Texture: {fileID: 0}
        m_Scale: {x: 1, y: 1}
        m_Offset: {x: 0, y: 0}
    - _SubsurfaceRadiusMap:
        m_Texture: {fileID: 0}
        m_Scale: {x: 1, y: 1}
        m_Offset: {x: 0, y: 0}
    - _SubsurfaceRadiusMapT2DA:
        m_Texture: {fileID: 0}
        m_Scale: {x: 1, y: 1}
        m_Offset: {x: 0, y: 0}
    - _TangentMap:
        m_Texture: {fileID: 0}
        m_Scale: {x: 1, y: 1}
        m_Offset: {x: 0, y: 0}
    - _TangentMapOS:
        m_Texture: {fileID: 0}
        m_Scale: {x: 1, y: 1}
        m_Offset: {x: 0, y: 0}
    - _TangentMapOST2DA:
        m_Texture: {fileID: 0}
        m_Scale: {x: 1, y: 1}
        m_Offset: {x: 0, y: 0}
    - _TangentMapT2DA:
        m_Texture: {fileID: 0}
        m_Scale: {x: 1, y: 1}
        m_Offset: {x: 0, y: 0}
    - _ThicknessMap:
        m_Texture: {fileID: 0}
        m_Scale: {x: 1, y: 1}
        m_Offset: {x: 0, y: 0}
    - _ThicknessMap0:
        m_Texture: {fileID: 0}
        m_Scale: {x: 1, y: 1}
        m_Offset: {x: 0, y: 0}
    - _ThicknessMap1:
        m_Texture: {fileID: 0}
        m_Scale: {x: 1, y: 1}
        m_Offset: {x: 0, y: 0}
    - _ThicknessMap2:
        m_Texture: {fileID: 0}
        m_Scale: {x: 1, y: 1}
        m_Offset: {x: 0, y: 0}
    - _ThicknessMap3:
        m_Texture: {fileID: 0}
        m_Scale: {x: 1, y: 1}
        m_Offset: {x: 0, y: 0}
    - _ThicknessMapT2DA:
        m_Texture: {fileID: 0}
        m_Scale: {x: 1, y: 1}
        m_Offset: {x: 0, y: 0}
    - _TransmissionThicknessMap:
        m_Texture: {fileID: 0}
        m_Scale: {x: 1, y: 1}
        m_Offset: {x: 0, y: 0}
    - _TransmittanceColorMap:
        m_Texture: {fileID: 0}
        m_Scale: {x: 1, y: 1}
        m_Offset: {x: 0, y: 0}
    - _WindFlutterMap:
        m_Texture: {fileID: 0}
        m_Scale: {x: 1, y: 1}
        m_Offset: {x: 0, y: 0}
    m_Floats:
    - _AORemapMax: 1
    - _AORemapMax0: 1
    - _AORemapMax1: 1
    - _AORemapMax2: 1
    - _AORemapMax3: 1
    - _AORemapMin: 0
    - _AORemapMin0: 0
    - _AORemapMin1: 0
    - _AORemapMin2: 0
    - _AORemapMin3: 0
    - _ATDistance: 1
    - _AlbedoAffectEmissive: 0
    - _AlphaCutoff: 0.5
    - _AlphaCutoffEnable: 0
    - _AlphaCutoffPostpass: 0.5
    - _AlphaCutoffPrepass: 0.5
    - _Anisotropy: 0
    - _Asperity: 0
    - _BackfaceSmoothnessScale: 1
    - _BaseMapEncoding: 1
    - _BillboardMode: 0
    - _BillboardShadowMode: 0
    - _BlendMode: 0
    - _BumpScale: 1
    - _CoatCoverage: 1
    - _CoatIOR: 0.5
    - _CoatMask: 0
    - _CullMode: 2
    - _CullModeForward: 2
    - _CullModeNormalFlip: 1
    - _Cutoff: 0.5
    - _DebugTreeOcclusion: 0
    - _DepthOffset: 0
    - _DepthOffsetEnable: 0
    - _DetailAlbedoScale: 1
    - _DetailAlbedoScale0: 1
    - _DetailAlbedoScale1: 1
    - _DetailAlbedoScale2: 1
    - _DetailAlbedoScale3: 1
    - _DetailMode: 0
    - _DetailNormalMapScale: 1
    - _DetailNormalScale: 1
    - _DetailNormalScale0: 1
    - _DetailNormalScale1: 1
    - _DetailNormalScale2: 1
    - _DetailNormalScale3: 1
    - _DetailSmoothnessScale: 1
    - _DetailSmoothnessScale0: 1
    - _DetailSmoothnessScale1: 1
    - _DetailSmoothnessScale2: 1
    - _DetailSmoothnessScale3: 1
    - _DiffusionProfile: 0
    - _DiffusionProfile0: 0
    - _DiffusionProfile1: 0
    - _DiffusionProfile2: 0
    - _DiffusionProfile3: 0
    - _DisplacementLockObjectScale: 1
    - _DisplacementLockTilingScale: 1
    - _DisplacementMode: 0
    - _DisplacementStrength: 0.1
    - _DistortionBlendMode: 0
    - _DistortionBlurBlendMode: 0
    - _DistortionBlurDstBlend: 1
    - _DistortionBlurRemapMax: 1
    - _DistortionBlurRemapMin: 0
    - _DistortionBlurScale: 1
    - _DistortionBlurSrcBlend: 1
    - _DistortionDepthTest: 0
    - _DistortionDstBlend: 1
    - _DistortionEnable: 0
    - _DistortionOnly: 0
    - _DistortionScale: 1
    - _DistortionSrcBlend: 1
    - _DistortionVectorBias: -1
    - _DistortionVectorScale: 2
    - _DoubleSidedEnable: 0
    - _DoubleSidedMirrorEnable: 1
    - _DoubleSidedNormalMode: 1
    - _Drag: 1
    - _DstBlend: 0
    - _EmissiveColorMode: 1
    - _EnableAmbient: 1
    - _EnableBlendModePreserveSpecularLighting: 1
    - _EnableFogOnTransparent: 1
    - _EnableGeometricSpecularAA: 0
    - _EnableMotionVectorForVertexAnimation: 0
    - _EnablePerPixelDisplacement: 0
    - _EnableSpecular: 1
    - _EnableSpecularOcclusion: 0
    - _EnableTerrainMode: 0
    - _EnableWind: 4
    - _EnergyConservingSpecularColor: 1
    - _FullDetailNormalBlendThreshold: 1
    - _FullDetailNormalBlendWidth: 0.05
    - _GlossMapScale: 0.078
    - _Glossiness: 0.5
    - _GlossyReflections: 1
    - _HdrpVersion: 1
    - _HeightAmplitude: 0.02
    - _HeightAmplitude0: 0.02
    - _HeightAmplitude1: 0.02
    - _HeightAmplitude2: 0.02
    - _HeightAmplitude3: 0.02
    - _HeightCenter: 0.5
    - _HeightCenter0: 0.5
    - _HeightCenter1: 0.5
    - _HeightCenter2: 0.5
    - _HeightCenter3: 0.5
    - _HeightMapParametrization: 1
    - _HeightMapParametrization0: 0
    - _HeightMapParametrization1: 0
    - _HeightMapParametrization2: 0
    - _HeightMapParametrization3: 0
    - _HeightMax: 1
    - _HeightMax0: 1
    - _HeightMax1: 1
    - _HeightMax2: 1
    - _HeightMax3: 1
    - _HeightMin: -1
    - _HeightMin0: -1
    - _HeightMin1: -1
    - _HeightMin2: -1
    - _HeightMin3: -1
    - _HeightOffset: 0
    - _HeightOffset0: 0
    - _HeightOffset1: 0
    - _HeightOffset2: 0
    - _HeightOffset3: 0
    - _HeightPoMAmplitude: 2
    - _HeightPoMAmplitude0: 2
    - _HeightPoMAmplitude1: 2
    - _HeightPoMAmplitude2: 2
    - _HeightPoMAmplitude3: 2
    - _HeightTessAmplitude: 2
    - _HeightTessAmplitude0: 2
    - _HeightTessAmplitude1: 2
    - _HeightTessAmplitude2: 2
    - _HeightTessAmplitude3: 2
    - _HeightTessCenter: 0.5
    - _HeightTessCenter0: 0.5
    - _HeightTessCenter1: 0.5
    - _HeightTessCenter2: 0.5
    - _HeightTessCenter3: 0.5
    - _HeightTransition: 0
    - _HorizonFade: 1
    - _IOR: 1
    - _InheritBaseColor1: 0
    - _InheritBaseColor2: 0
    - _InheritBaseColor3: 0
    - _InheritBaseHeight1: 0
    - _InheritBaseHeight2: 0
    - _InheritBaseHeight3: 0
    - _InheritBaseNormal1: 0
    - _InheritBaseNormal2: 0
    - _InheritBaseNormal3: 0
    - _InitialBend: 1
    - _InvTilingScale: 1
    - _InvTilingScale0: 1
    - _InvTilingScale1: 1
    - _InvTilingScale2: 1
    - _InvTilingScale3: 1
    - _Ior: 1
    - _IridescenceMask: 1
    - _IridescenceThickness: 1
    - _LayerCount: 2
    - _LinkDetailsWithBase: 1
    - _LinkDetailsWithBase0: 1
    - _LinkDetailsWithBase1: 1
    - _LinkDetailsWithBase2: 1
    - _LinkDetailsWithBase3: 1
    - _MaskMapEncoding: 0
    - _MaterialID: 1
    - _Metallic: 0
    - _Metallic0: 0
    - _Metallic1: 0
    - _Metallic2: 0
    - _Metallic3: 0
    - _Mode: 0
    - _MotionVectorScale: 1
    - _MotionVectorsWorldspaceScaled: 0
    - _NormalMapSpace: 0
    - _NormalMapSpace0: 0
    - _NormalMapSpace1: 0
    - _NormalMapSpace2: 0
    - _NormalMapSpace3: 0
    - _NormalScale: 1
    - _NormalScale0: 1
    - _NormalScale1: 1
    - _NormalScale2: 1
    - _NormalScale3: 1
    - _ObjectScaleAffectTile: 0
    - _OcclusionStrength: 0.705
    - _OpacityAsDensity0: 0
    - _OpacityAsDensity1: 0
    - _OpacityAsDensity2: 0
    - _OpacityAsDensity3: 0
    - _PPDLodThreshold: 5
    - _PPDMaxSamples: 15
    - _PPDMinSamples: 5
    - _PPDPrimitiveLength: 1
    - _PPDPrimitiveWidth: 1
    - _Parallax: 0.005
    - _PreRefractionPass: 0
    - _RefractionMode: 0
    - _RefractionModel: 0
    - _RefractionSSRayModel: 0
    - _SSRefractionProjectionModel: 0
    - _SSSAndTransmissionType: 0
    - _ShiverDirectionality: 0.5
    - _ShiverDrag: 0.2
    - _ShowLayer0: 0
    - _ShowLayer1: 0
    - _ShowLayer2: 0
    - _ShowLayer3: 0
    - _ShowMaterialReferences: 0
    - _Smoothness: 0.5
    - _Smoothness0: 1
    - _Smoothness1: 1
    - _Smoothness2: 1
    - _Smoothness3: 1
    - _SmoothnessRemapMax: 1
    - _SmoothnessRemapMax0: 1
    - _SmoothnessRemapMax1: 1
    - _SmoothnessRemapMax2: 1
    - _SmoothnessRemapMax3: 1
    - _SmoothnessRemapMin: 0
    - _SmoothnessRemapMin0: 0
    - _SmoothnessRemapMin1: 0
    - _SmoothnessRemapMin2: 0
    - _SmoothnessRemapMin3: 0
    - _SmoothnessTextureChannel: 1
    - _SmoothnessViewAngleOffset: 0.1
    - _SpecularAAScreenSpaceVariance: 0.1
    - _SpecularAAThreshold: 0.2
    - _SpecularHighlights: 1
    - _SrcBlend: 1
    - _StencilRef: 130
    - _StencilRefMV: 128
    - _StencilWriteMask: 135
    - _StencilWriteMaskMV: 128
    - _Stiffness: 1
    - _SubsurfaceMask: 1
    - _SubsurfaceMask0: 1
    - _SubsurfaceMask1: 1
    - _SubsurfaceMask2: 1
    - _SubsurfaceMask3: 1
    - _SubsurfaceProfile: 0
    - _SubsurfaceRadius: 1
    - _SupportDBuffer: 1
    - _SurfaceType: 0
    - _TessellationBackFaceCullEpsilon: -0.368
    - _TessellationEnd: 10
    - _TessellationFactor: 8
    - _TessellationFactorMaxDistance: 10
    - _TessellationFactorMinDistance: 1
    - _TessellationFactorTriangleSize: 50
    - _TessellationMode: 1
    - _TessellationObjectScale: 0
    - _TessellationShapeFactor: 0.75
    - _TessellationStart: 0
    - _TessellationTilingScale: 1
    - _TexWorldScale: 1
    - _TexWorldScale0: 1
    - _TexWorldScale1: 1
    - _TexWorldScale2: 1
    - _TexWorldScale3: 1
    - _TexWorldScaleBlendMask: 1
    - _TexWorldScaleEmissive: 1
    - _Thickness: 1
    - _Thickness0: 1
    - _Thickness1: 1
    - _Thickness2: 1
    - _Thickness3: 1
    - _ThicknessMapEncoding: 0
    - _ThicknessMultiplier: 1
    - _TransmissionEnable: 1
    - _TransmissionSelfOcclusion: 1
    - _TransmissionThicknessScale: 1
    - _TransparentBackfaceEnable: 0
    - _TransparentDepthPostpassEnable: 0
    - _TransparentDepthPrepassEnable: 0
    - _TransparentSortPriority: 0
    - _Tree12Width: 10
    - _TreeAO: 1
    - _TreeAO2: 2.4
    - _TreeAOBias: 0.1
    - _TreeAOBias2: 0.35
    - _TreeDO: 7.5
    - _TreeDO2: 5
    - _TreeDOBias: 0
    - _TreeDOBias2: 0
    - _UVBase: 0
    - _UVBase0: 0
    - _UVBase1: 0
    - _UVBase2: 0
    - _UVBase3: 0
    - _UVBlendMask: 0
    - _UVDetail: 0
    - _UVDetail0: 0
    - _UVDetail1: 0
    - _UVDetail2: 0
    - _UVDetail3: 0
    - _UVEmissive: 0
    - _UVSec: 0
    - _UseDensityMode: 0
    - _UseHeightBasedBlend: 0
    - _UseMainLayerInfluence: 0
    - _UseObjectSpaceBaseNormalMap: 0
    - _UseTransmission: 1
    - _UseTreeOcclusion: 0
    - _UseWind: 0
    - _VertexColorMode: 0
    - _WindElasticityLvl0: 0.36
    - _WindElasticityLvl1: 0.12
    - _WindElasticityLvlB: 0.188
    - _WindFakeSingleObjectPivot: 0
    - _WindFlutterElasticity: 0.501
    - _WindFlutterPeriodScale: 2.751
    - _WindFlutterPhase: 72.6
    - _WindFlutterScale: 0.25
    - _WindHeightClamp: 1
    - _WindHeightIntensity: 0.1
    - _WindHeightScale: 0
    - _WindHeightSpeed: 1
    - _WindInnerRadius: 0.5
    - _WindRadiusIntensity: 0.1
    - _WindRadiusSpeed: 1
    - _WindRangeLvl0: 1.3
    - _WindRangeLvl1: 0.2
    - _WindRangeLvlB: 36
    - _WindRangeRadius: 2.5
    - _ZTestDepthEqualForOpaque: 3
    - _ZTestGBuffer: 4
    - _ZTestMode: 8
    - _ZTestModeDistortion: 8
    - _ZWrite: 1
    m_Colors:
    - _BackfaceBaseColorScale: {r: 1, g: 1, b: 1, a: 1}
    - _BaseColor: {r: 0.68122834, g: 0.69726163, b: 0.7352941, a: 1}
    - _BaseColor0: {r: 1, g: 1, b: 1, a: 1}
    - _BaseColor1: {r: 1, g: 1, b: 1, a: 1}
    - _BaseColor2: {r: 1, g: 1, b: 1, a: 1}
    - _BaseColor3: {r: 1, g: 1, b: 1, a: 1}
    - _BaseColorRandomize: {r: 0, g: 0, b: 0, a: 0.05}
    - _Color: {r: 0.68122834, g: 0.69726163, b: 0.73529416, a: 1}
    - _DoubleSidedConstants: {r: 1, g: 1, b: -1, a: 0}
    - _EmissionColor: {r: 1, g: 1, b: 1, a: 1}
    - _EmissiveColor: {r: 0, g: 0, b: 0, a: 1}
    - _ImposterOffset: {r: 0.5, g: 0, b: 0, a: 0}
    - _InvPrimScale: {r: 1, g: 1, b: 0, a: 0}
    - _IridescenceThicknessRemap: {r: 0, g: 1, b: 0, a: 0}
    - _PeeledBarkColor: {r: 1, g: 1, b: 1, a: 1}
    - _PeeledBarkColorAlt: {r: 0.9, g: 0.9, b: 1, a: 1}
    - _PeeledBarkUVRangeScale: {r: 0, g: 1, b: 2, a: 0}
    - _SpecColor: {r: 0.19999996, g: 0.19999996, b: 0.19999996, a: 1}
    - _SpecularColor: {r: 1, g: 1, b: 1, a: 1}
    - _ThicknessRemap: {r: 0, g: 1, b: 0, a: 0}
    - _ThicknessRemap0: {r: 0, g: 1, b: 0, a: 0}
    - _ThicknessRemap1: {r: 0, g: 1, b: 0, a: 0}
    - _ThicknessRemap2: {r: 0, g: 1, b: 0, a: 0}
    - _ThicknessRemap3: {r: 0, g: 1, b: 0, a: 0}
    - _TransmittanceColor: {r: 1, g: 1, b: 1, a: 1}
    - _UVDetailsMappingMask: {r: 1, g: 0, b: 0, a: 0}
    - _UVDetailsMappingMask0: {r: 1, g: 0, b: 0, a: 0}
    - _UVDetailsMappingMask1: {r: 1, g: 0, b: 0, a: 0}
    - _UVDetailsMappingMask2: {r: 1, g: 0, b: 0, a: 0}
    - _UVDetailsMappingMask3: {r: 1, g: 0, b: 0, a: 0}
    - _UVMappingMask: {r: 1, g: 0, b: 0, a: 0}
    - _UVMappingMask0: {r: 1, g: 0, b: 0, a: 0}
    - _UVMappingMask1: {r: 1, g: 0, b: 0, a: 0}
    - _UVMappingMask2: {r: 1, g: 0, b: 0, a: 0}
    - _UVMappingMask3: {r: 1, g: 0, b: 0, a: 0}
    - _UVMappingMaskBlendMask: {r: 1, g: 0, b: 0, a: 0}
    - _UVMappingMaskEmissive: {r: 1, g: 0, b: 0, a: 0}
